%YAML 1.1
%TAG !u! tag:unity3d.com,2011:
--- !u!1001 &8835061664539307902
PrefabInstance:
  m_ObjectHideFlags: 0
  serializedVersion: 2
  m_Modification:
    m_TransformParent: {fileID: 0}
    m_Modifications:
    - target: {fileID: 3265255207356165161, guid: e0c3a401332184d4693106f72dd8ecb3,
        type: 3}
      propertyPath: m_Name
      value: Parley
      objectReference: {fileID: 0}
    - target: {fileID: 3265255207356165166, guid: e0c3a401332184d4693106f72dd8ecb3,
        type: 3}
      propertyPath: m_LocalPosition.x
      value: 0
      objectReference: {fileID: 0}
    - target: {fileID: 3265255207356165166, guid: e0c3a401332184d4693106f72dd8ecb3,
        type: 3}
      propertyPath: m_LocalPosition.y
      value: 0
      objectReference: {fileID: 0}
    - target: {fileID: 3265255207356165166, guid: e0c3a401332184d4693106f72dd8ecb3,
        type: 3}
      propertyPath: m_LocalPosition.z
      value: 0
      objectReference: {fileID: 0}
    - target: {fileID: 3265255207356165166, guid: e0c3a401332184d4693106f72dd8ecb3,
        type: 3}
      propertyPath: m_LocalRotation.x
      value: 0
      objectReference: {fileID: 0}
    - target: {fileID: 3265255207356165166, guid: e0c3a401332184d4693106f72dd8ecb3,
        type: 3}
      propertyPath: m_LocalRotation.y
      value: 0
      objectReference: {fileID: 0}
    - target: {fileID: 3265255207356165166, guid: e0c3a401332184d4693106f72dd8ecb3,
        type: 3}
      propertyPath: m_LocalRotation.z
      value: 0
      objectReference: {fileID: 0}
    - target: {fileID: 3265255207356165166, guid: e0c3a401332184d4693106f72dd8ecb3,
        type: 3}
      propertyPath: m_LocalRotation.w
      value: 1
      objectReference: {fileID: 0}
    - target: {fileID: 3265255207356165166, guid: e0c3a401332184d4693106f72dd8ecb3,
        type: 3}
      propertyPath: m_RootOrder
      value: 0
      objectReference: {fileID: 0}
    - target: {fileID: 3265255207356165166, guid: e0c3a401332184d4693106f72dd8ecb3,
        type: 3}
      propertyPath: m_LocalEulerAnglesHint.x
      value: 0
      objectReference: {fileID: 0}
    - target: {fileID: 3265255207356165166, guid: e0c3a401332184d4693106f72dd8ecb3,
        type: 3}
      propertyPath: m_LocalEulerAnglesHint.y
      value: 0
      objectReference: {fileID: 0}
    - target: {fileID: 3265255207356165166, guid: e0c3a401332184d4693106f72dd8ecb3,
        type: 3}
      propertyPath: m_LocalEulerAnglesHint.z
      value: 0
      objectReference: {fileID: 0}
    - target: {fileID: 3265255207356165166, guid: e0c3a401332184d4693106f72dd8ecb3,
        type: 3}
      propertyPath: m_AnchoredPosition.x
      value: 0
      objectReference: {fileID: 0}
    - target: {fileID: 3265255207356165166, guid: e0c3a401332184d4693106f72dd8ecb3,
        type: 3}
      propertyPath: m_AnchoredPosition.y
      value: 0
      objectReference: {fileID: 0}
    - target: {fileID: 3265255207356165166, guid: e0c3a401332184d4693106f72dd8ecb3,
        type: 3}
      propertyPath: m_SizeDelta.x
      value: 0
      objectReference: {fileID: 0}
    - target: {fileID: 3265255207356165166, guid: e0c3a401332184d4693106f72dd8ecb3,
        type: 3}
      propertyPath: m_SizeDelta.y
      value: 0
      objectReference: {fileID: 0}
    - target: {fileID: 3265255207356165166, guid: e0c3a401332184d4693106f72dd8ecb3,
        type: 3}
      propertyPath: m_AnchorMin.x
      value: 0.25
      objectReference: {fileID: 0}
    - target: {fileID: 3265255207356165166, guid: e0c3a401332184d4693106f72dd8ecb3,
        type: 3}
      propertyPath: m_AnchorMin.y
      value: 0.15
      objectReference: {fileID: 0}
    - target: {fileID: 3265255207356165166, guid: e0c3a401332184d4693106f72dd8ecb3,
        type: 3}
      propertyPath: m_AnchorMax.x
      value: 0.75
      objectReference: {fileID: 0}
    - target: {fileID: 3265255207356165166, guid: e0c3a401332184d4693106f72dd8ecb3,
        type: 3}
      propertyPath: m_AnchorMax.y
      value: 0.8
      objectReference: {fileID: 0}
    - target: {fileID: 3265255207356165166, guid: e0c3a401332184d4693106f72dd8ecb3,
        type: 3}
      propertyPath: m_Pivot.x
      value: 0
      objectReference: {fileID: 0}
    - target: {fileID: 3265255207356165166, guid: e0c3a401332184d4693106f72dd8ecb3,
        type: 3}
      propertyPath: m_Pivot.y
      value: 0
      objectReference: {fileID: 0}
    - target: {fileID: 3265255207234398644, guid: e0c3a401332184d4693106f72dd8ecb3,
        type: 3}
      propertyPath: m_Text
      value: Parley with the bandits
      objectReference: {fileID: 0}
    - target: {fileID: 3265255206899918670, guid: e0c3a401332184d4693106f72dd8ecb3,
        type: 3}
      propertyPath: m_Text
      value: 'lost 1000 pounds of food

        lost 1000 gallons of water'
      objectReference: {fileID: 0}
    - target: {fileID: 3265255208626490745, guid: e0c3a401332184d4693106f72dd8ecb3,
        type: 3}
      propertyPath: m_Text
      value: 'Your numbers scare them into parley but doesn''t stop them demanding
        supplies from you. You give them to avoid conflict. '
      objectReference: {fileID: 0}
    m_RemovedComponents: []
  m_SourcePrefab: {fileID: 100100000, guid: e0c3a401332184d4693106f72dd8ecb3, type: 3}
